authorId_int_notNull_autoincrement_pk,authorName_varchar100_notNull,telephon_varchar100_null,postId_int_notNull_fk_Posts_postId
1,Blue A,038-450–485,1
2,Green B,038-500–565,3
3,Yellow C,038-565–590,2
4,Orange D,038-590–625,3